.qsys_edit/simulation/qsim/Projeto_verilog.msim.vcd
$comment
	File created using the following command:
		vcd file Projeto_verilog.msim.vcd -direction
$end
$date
	Tue Jul 23 15:20:24 2024
$end
$version
	ModelSim Version 2020.1
$end
$timescale
	1ps
$end

$scope module cronometro_vlg_vec_tst $end
$var reg 1 ! clock $end
$var reg 1 " contarI $end
$var reg 1 # pararI $end
$var reg 1 $ pausarI $end
$var reg 1 % resetI $end
$var wire 1 & display_css [6] $end
$var wire 1 ' display_css [5] $end
$var wire 1 ( display_css [4] $end
$var wire 1 ) display_css [3] $end
$var wire 1 * display_css [2] $end
$var wire 1 + display_css [1] $end
$var wire 1 , display_css [0] $end
$var wire 1 - display_dss [6] $end
$var wire 1 . display_dss [5] $end
$var wire 1 / display_dss [4] $end
$var wire 1 0 display_dss [3] $end
$var wire 1 1 display_dss [2] $end
$var wire 1 2 display_dss [1] $end
$var wire 1 3 display_dss [0] $end
$var wire 1 4 display_mss [6] $end
$var wire 1 5 display_mss [5] $end
$var wire 1 6 display_mss [4] $end
$var wire 1 7 display_mss [3] $end
$var wire 1 8 display_mss [2] $end
$var wire 1 9 display_mss [1] $end
$var wire 1 : display_mss [0] $end
$var wire 1 ; display_uss [6] $end
$var wire 1 < display_uss [5] $end
$var wire 1 = display_uss [4] $end
$var wire 1 > display_uss [3] $end
$var wire 1 ? display_uss [2] $end
$var wire 1 @ display_uss [1] $end
$var wire 1 A display_uss [0] $end

$scope module i1 $end
$var wire 1 B gnd $end
$var wire 1 C vcc $end
$var wire 1 D unknown $end
$var tri1 1 E devclrn $end
$var tri1 1 F devpor $end
$var tri1 1 G devoe $end
$var wire 1 H display_mss[0]~output_o $end
$var wire 1 I display_mss[1]~output_o $end
$var wire 1 J display_mss[2]~output_o $end
$var wire 1 K display_mss[3]~output_o $end
$var wire 1 L display_mss[4]~output_o $end
$var wire 1 M display_mss[5]~output_o $end
$var wire 1 N display_mss[6]~output_o $end
$var wire 1 O display_uss[0]~output_o $end
$var wire 1 P display_uss[1]~output_o $end
$var wire 1 Q display_uss[2]~output_o $end
$var wire 1 R display_uss[3]~output_o $end
$var wire 1 S display_uss[4]~output_o $end
$var wire 1 T display_uss[5]~output_o $end
$var wire 1 U display_uss[6]~output_o $end
$var wire 1 V display_dss[0]~output_o $end
$var wire 1 W display_dss[1]~output_o $end
$var wire 1 X display_dss[2]~output_o $end
$var wire 1 Y display_dss[3]~output_o $end
$var wire 1 Z display_dss[4]~output_o $end
$var wire 1 [ display_dss[5]~output_o $end
$var wire 1 \ display_dss[6]~output_o $end
$var wire 1 ] display_css[0]~output_o $end
$var wire 1 ^ display_css[1]~output_o $end
$var wire 1 _ display_css[2]~output_o $end
$var wire 1 ` display_css[3]~output_o $end
$var wire 1 a display_css[4]~output_o $end
$var wire 1 b display_css[5]~output_o $end
$var wire 1 c display_css[6]~output_o $end
$var wire 1 d clock~input_o $end
$var wire 1 e contarI~input_o $end
$var wire 1 f resetI~input_o $end
$var wire 1 g pararI~input_o $end
$var wire 1 h pausarI~input_o $end
$var wire 1 i entradas|apertou~0_combout $end
$var wire 1 j entradas|apertou~1_combout $end
$var wire 1 k entradas|apertou~q $end
$var wire 1 l entradas|resetA~0_combout $end
$var wire 1 m entradas|resetA~1_combout $end
$var wire 1 n entradas|resetA~q $end
$var wire 1 o entradas|contarA~0_combout $end
$var wire 1 p entradas|contarA~1_combout $end
$var wire 1 q entradas|contarA~2_combout $end
$var wire 1 r entradas|contarA~q $end
$var wire 1 s entradas|contarC~1_combout $end
$var wire 1 t entradas|always0~1_combout $end
$var wire 1 u entradas|pausarC~0_combout $end
$var wire 1 v entradas|pausarA~0_combout $end
$var wire 1 w entradas|pausarA~1_combout $end
$var wire 1 x entradas|pausarA~q $end
$var wire 1 y entradas|always0~0_combout $end
$var wire 1 z entradas|pararC~0_combout $end
$var wire 1 { entradas|pararA~0_combout $end
$var wire 1 | entradas|pararA~1_combout $end
$var wire 1 } entradas|pararA~q $end
$var wire 1 ~ entradas|contarC~0_combout $end
$var wire 1 !! entradas|contarC~q $end
$var wire 1 "! entradas|pararC~q $end
$var wire 1 #! entradas|resetC~q $end
$var wire 1 $! contador_ms|Selector3~1_combout $end
$var wire 1 %! entradas|pausarC~q $end
$var wire 1 &! contador_ms|Selector2~1_combout $end
$var wire 1 '! contador_ms|Selector2~0_combout $end
$var wire 1 (! contador_ms|estado_atual.PAUSAR~q $end
$var wire 1 )! contador_ms|Selector3~2_combout $end
$var wire 1 *! contador_ms|Selector3~0_combout $end
$var wire 1 +! contador_ms|Selector3~5_combout $end
$var wire 1 ,! contador_ms|estado_atual.PARAR~q $end
$var wire 1 -! contador_ms|Selector3~3_combout $end
$var wire 1 .! contador_ms|Selector3~4_combout $end
$var wire 1 /! contador_ms|Selector0~0_combout $end
$var wire 1 0! contador_ms|Selector1~0_combout $end
$var wire 1 1! contador_ms|Selector1~1_combout $end
$var wire 1 2! contador_ms|Selector1~2_combout $end
$var wire 1 3! contador_ms|estado_atual.CONTAR~q $end
$var wire 1 4! contador_ms|Selector0~1_combout $end
$var wire 1 5! contador_ms|Selector0~2_combout $end
$var wire 1 6! contador_ms|estado_atual.RESET~q $end
$var wire 1 7! contador_ms|Selector12~0_combout $end
$var wire 1 8! contador_ms|Add0~0_combout $end
$var wire 1 9! contador_ms|Selector43~0_combout $end
$var wire 1 :! contador_ms|Add0~1 $end
$var wire 1 ;! contador_ms|Add0~2_combout $end
$var wire 1 <! contador_ms|Selector42~0_combout $end
$var wire 1 =! contador_ms|Add0~3 $end
$var wire 1 >! contador_ms|Add0~4_combout $end
$var wire 1 ?! contador_ms|Selector41~0_combout $end
$var wire 1 @! contador_ms|Add0~5 $end
$var wire 1 A! contador_ms|Add0~6_combout $end
$var wire 1 B! contador_ms|Selector40~0_combout $end
$var wire 1 C! contador_ms|Add0~7 $end
$var wire 1 D! contador_ms|Add0~8_combout $end
$var wire 1 E! contador_ms|Selector39~0_combout $end
$var wire 1 F! contador_ms|Add0~9 $end
$var wire 1 G! contador_ms|Add0~10_combout $end
$var wire 1 H! contador_ms|Selector38~0_combout $end
$var wire 1 I! contador_ms|Add0~11 $end
$var wire 1 J! contador_ms|Add0~12_combout $end
$var wire 1 K! contador_ms|Selector37~0_combout $end
$var wire 1 L! contador_ms|Add0~13 $end
$var wire 1 M! contador_ms|Add0~14_combout $end
$var wire 1 N! contador_ms|Selector36~0_combout $end
$var wire 1 O! contador_ms|Add0~15 $end
$var wire 1 P! contador_ms|Add0~16_combout $end
$var wire 1 Q! contador_ms|Selector35~0_combout $end
$var wire 1 R! contador_ms|Add0~17 $end
$var wire 1 S! contador_ms|Add0~18_combout $end
$var wire 1 T! contador_ms|Selector34~0_combout $end
$var wire 1 U! contador_ms|Add0~19 $end
$var wire 1 V! contador_ms|Add0~20_combout $end
$var wire 1 W! contador_ms|Selector33~0_combout $end
$var wire 1 X! contador_ms|Add0~21 $end
$var wire 1 Y! contador_ms|Add0~22_combout $end
$var wire 1 Z! contador_ms|Selector32~0_combout $end
$var wire 1 [! contador_ms|Add0~23 $end
$var wire 1 \! contador_ms|Add0~24_combout $end
$var wire 1 ]! contador_ms|Selector31~0_combout $end
$var wire 1 ^! contador_ms|Add0~25 $end
$var wire 1 _! contador_ms|Add0~26_combout $end
$var wire 1 `! contador_ms|Selector30~0_combout $end
$var wire 1 a! contador_ms|Add0~27 $end
$var wire 1 b! contador_ms|Add0~28_combout $end
$var wire 1 c! contador_ms|Selector29~0_combout $end
$var wire 1 d! contador_ms|Add0~29 $end
$var wire 1 e! contador_ms|Add0~30_combout $end
$var wire 1 f! contador_ms|Selector28~0_combout $end
$var wire 1 g! contador_ms|Add0~31 $end
$var wire 1 h! contador_ms|Add0~32_combout $end
$var wire 1 i! contador_ms|Selector27~0_combout $end
$var wire 1 j! contador_ms|Add0~33 $end
$var wire 1 k! contador_ms|Add0~34_combout $end
$var wire 1 l! contador_ms|Selector26~0_combout $end
$var wire 1 m! contador_ms|Add0~35 $end
$var wire 1 n! contador_ms|Add0~36_combout $end
$var wire 1 o! contador_ms|Selector25~0_combout $end
$var wire 1 p! contador_ms|Add0~37 $end
$var wire 1 q! contador_ms|Add0~38_combout $end
$var wire 1 r! contador_ms|Selector24~0_combout $end
$var wire 1 s! contador_ms|Add0~39 $end
$var wire 1 t! contador_ms|Add0~40_combout $end
$var wire 1 u! contador_ms|Selector23~0_combout $end
$var wire 1 v! contador_ms|Add0~41 $end
$var wire 1 w! contador_ms|Add0~42_combout $end
$var wire 1 x! contador_ms|Selector22~0_combout $end
$var wire 1 y! contador_ms|Add0~43 $end
$var wire 1 z! contador_ms|Add0~44_combout $end
$var wire 1 {! contador_ms|Selector21~0_combout $end
$var wire 1 |! contador_ms|Add0~45 $end
$var wire 1 }! contador_ms|Add0~46_combout $end
$var wire 1 ~! contador_ms|Selector20~0_combout $end
$var wire 1 !" contador_ms|Add0~47 $end
$var wire 1 "" contador_ms|Add0~48_combout $end
$var wire 1 #" contador_ms|Selector19~0_combout $end
$var wire 1 $" contador_ms|Add0~49 $end
$var wire 1 %" contador_ms|Add0~50_combout $end
$var wire 1 &" contador_ms|Selector18~0_combout $end
$var wire 1 '" contador_ms|Add0~51 $end
$var wire 1 (" contador_ms|Add0~52_combout $end
$var wire 1 )" contador_ms|Selector17~0_combout $end
$var wire 1 *" contador_ms|Add0~53 $end
$var wire 1 +" contador_ms|Add0~54_combout $end
$var wire 1 ," contador_ms|Selector16~0_combout $end
$var wire 1 -" contador_ms|Add0~55 $end
$var wire 1 ." contador_ms|Add0~56_combout $end
$var wire 1 /" contador_ms|Selector15~0_combout $end
$var wire 1 0" contador_ms|Add0~57 $end
$var wire 1 1" contador_ms|Add0~58_combout $end
$var wire 1 2" contador_ms|Selector14~0_combout $end
$var wire 1 3" contador_ms|Add0~59 $end
$var wire 1 4" contador_ms|Add0~60_combout $end
$var wire 1 5" contador_ms|Selector13~0_combout $end
$var wire 1 6" contador_ms|Add0~61 $end
$var wire 1 7" contador_ms|Add0~62_combout $end
$var wire 1 8" contador_ms|LessThan0~0_combout $end
$var wire 1 9" contador_ms|LessThan0~1_combout $end
$var wire 1 :" contador_ms|LessThan0~2_combout $end
$var wire 1 ;" contador_ms|LessThan0~3_combout $end
$var wire 1 <" contador_ms|LessThan0~4_combout $end
$var wire 1 =" contador_ms|LessThan0~5_combout $end
$var wire 1 >" contador_ms|LessThan0~6_combout $end
$var wire 1 ?" contador_ms|LessThan0~7_combout $end
$var wire 1 @" contador_ms|LessThan0~8_combout $end
$var wire 1 A" contador_ms|LessThan0~9_combout $end
$var wire 1 B" contador_ms|LessThan0~10_combout $end
$var wire 1 C" contador_ms|LessThan0~11_combout $end
$var wire 1 D" contador_ms|Selector11~0_combout $end
$var wire 1 E" contador_ms|Selector7~0_combout $end
$var wire 1 F" contador_ms|Add1~0_combout $end
$var wire 1 G" contador_ms|Selector9~0_combout $end
$var wire 1 H" contador_ms|num_conta~4_combout $end
$var wire 1 I" contador_ms|Equal0~0_combout $end
$var wire 1 J" contador_ms|Selector8~1_combout $end
$var wire 1 K" contador_ms|num_conta~3_combout $end
$var wire 1 L" contador_ms|Selector8~0_combout $end
$var wire 1 M" contador_ms|Selector10~2_combout $end
$var wire 1 N" contador_ms|num_conta~2_combout $end
$var wire 1 O" contador_ms|Selector6~0_combout $end
$var wire 1 P" contador_ms|Selector6~1_combout $end
$var wire 1 Q" contador_ms|Selector5~0_combout $end
$var wire 1 R" contador_ms|Selector4~0_combout $end
$var wire 1 S" display0|segmentos[0]~0_combout $end
$var wire 1 T" display_mss[0]~reg0_q $end
$var wire 1 U" display0|segmentos[1]~1_combout $end
$var wire 1 V" display_mss[1]~reg0_q $end
$var wire 1 W" display0|Decoder0~0_combout $end
$var wire 1 X" display_mss[2]~reg0_q $end
$var wire 1 Y" display0|WideOr3~0_combout $end
$var wire 1 Z" display_mss[3]~reg0_q $end
$var wire 1 [" display0|WideOr2~0_combout $end
$var wire 1 \" display_mss[4]~reg0_q $end
$var wire 1 ]" display0|WideOr1~0_combout $end
$var wire 1 ^" display_mss[5]~reg0_q $end
$var wire 1 _" display0|WideOr0~0_combout $end
$var wire 1 `" display_mss[6]~reg0_q $end
$var wire 1 a" contador_us|always1~0_combout $end
$var wire 1 b" contador_us|always1~1_combout $end
$var wire 1 c" contador_us|Selector11~0_combout $end
$var wire 1 d" contador_us|always1~2_combout $end
$var wire 1 e" contador_us|Selector7~0_combout $end
$var wire 1 f" contador_us|num_conta~2_combout $end
$var wire 1 g" contador_us|Selector9~0_combout $end
$var wire 1 h" contador_us|Equal2~0_combout $end
$var wire 1 i" contador_us|Selector8~0_combout $end
$var wire 1 j" contador_us|Add0~0_combout $end
$var wire 1 k" contador_us|num_conta~1_combout $end
$var wire 1 l" contador_us|Selector10~0_combout $end
$var wire 1 m" contador_us|num_conta~0_combout $end
$var wire 1 n" contador_us|Selector6~0_combout $end
$var wire 1 o" contador_us|Selector6~1_combout $end
$var wire 1 p" contador_us|Selector5~0_combout $end
$var wire 1 q" contador_us|Selector4~0_combout $end
$var wire 1 r" contador_us|Selector4~1_combout $end
$var wire 1 s" display1|segmentos[0]~0_combout $end
$var wire 1 t" display_uss[0]~reg0_q $end
$var wire 1 u" display1|segmentos[1]~1_combout $end
$var wire 1 v" display_uss[1]~reg0_q $end
$var wire 1 w" display1|Decoder0~0_combout $end
$var wire 1 x" display_uss[2]~reg0_q $end
$var wire 1 y" display1|WideOr3~0_combout $end
$var wire 1 z" display_uss[3]~reg0_q $end
$var wire 1 {" display1|WideOr2~0_combout $end
$var wire 1 |" display_uss[4]~reg0_q $end
$var wire 1 }" display1|WideOr1~0_combout $end
$var wire 1 ~" display_uss[5]~reg0_q $end
$var wire 1 !# display1|WideOr0~0_combout $end
$var wire 1 "# display_uss[6]~reg0_q $end
$var wire 1 ## contador_ds|always1~0_combout $end
$var wire 1 $# contador_ds|always1~1_combout $end
$var wire 1 %# contador_ds|Selector11~0_combout $end
$var wire 1 &# contador_ds|always1~2_combout $end
$var wire 1 '# contador_ds|Selector7~0_combout $end
$var wire 1 (# contador_ds|num_conta~2_combout $end
$var wire 1 )# contador_ds|Selector9~0_combout $end
$var wire 1 *# contador_ds|Equal2~0_combout $end
$var wire 1 +# contador_ds|Selector8~0_combout $end
$var wire 1 ,# contador_ds|Add0~0_combout $end
$var wire 1 -# contador_ds|num_conta~1_combout $end
$var wire 1 .# contador_ds|Selector10~0_combout $end
$var wire 1 /# contador_ds|num_conta~0_combout $end
$var wire 1 0# contador_ds|Selector6~0_combout $end
$var wire 1 1# contador_ds|Selector6~1_combout $end
$var wire 1 2# contador_ds|Selector5~0_combout $end
$var wire 1 3# contador_ds|Selector4~0_combout $end
$var wire 1 4# contador_ds|Selector4~1_combout $end
$var wire 1 5# display2|segmentos[0]~0_combout $end
$var wire 1 6# display_dss[0]~reg0_q $end
$var wire 1 7# display2|segmentos[1]~1_combout $end
$var wire 1 8# display_dss[1]~reg0_q $end
$var wire 1 9# display2|Decoder0~0_combout $end
$var wire 1 :# display_dss[2]~reg0_q $end
$var wire 1 ;# display2|WideOr3~0_combout $end
$var wire 1 <# display_dss[3]~reg0_q $end
$var wire 1 =# display2|WideOr2~0_combout $end
$var wire 1 ># display_dss[4]~reg0_q $end
$var wire 1 ?# display2|WideOr1~0_combout $end
$var wire 1 @# display_dss[5]~reg0_q $end
$var wire 1 A# display2|WideOr0~0_combout $end
$var wire 1 B# display_dss[6]~reg0_q $end
$var wire 1 C# contador_cs|always1~0_combout $end
$var wire 1 D# contador_cs|always1~1_combout $end
$var wire 1 E# contador_cs|Selector11~0_combout $end
$var wire 1 F# contador_cs|always1~2_combout $end
$var wire 1 G# contador_cs|Selector7~0_combout $end
$var wire 1 H# contador_cs|num_conta~2_combout $end
$var wire 1 I# contador_cs|Selector9~0_combout $end
$var wire 1 J# contador_cs|Equal2~0_combout $end
$var wire 1 K# contador_cs|Selector8~0_combout $end
$var wire 1 L# contador_cs|Add0~0_combout $end
$var wire 1 M# contador_cs|num_conta~1_combout $end
$var wire 1 N# contador_cs|Selector10~0_combout $end
$var wire 1 O# contador_cs|num_conta~0_combout $end
$var wire 1 P# contador_cs|Selector6~0_combout $end
$var wire 1 Q# contador_cs|Selector6~1_combout $end
$var wire 1 R# contador_cs|Selector5~0_combout $end
$var wire 1 S# contador_cs|Selector4~0_combout $end
$var wire 1 T# contador_cs|Selector4~1_combout $end
$var wire 1 U# display3|segmentos[0]~0_combout $end
$var wire 1 V# display_css[0]~reg0_q $end
$var wire 1 W# display3|segmentos[1]~1_combout $end
$var wire 1 X# display_css[1]~reg0_q $end
$var wire 1 Y# display3|Decoder0~0_combout $end
$var wire 1 Z# display_css[2]~reg0_q $end
$var wire 1 [# display3|WideOr3~0_combout $end
$var wire 1 \# display_css[3]~reg0_q $end
$var wire 1 ]# display3|WideOr2~0_combout $end
$var wire 1 ^# display_css[4]~reg0_q $end
$var wire 1 _# display3|WideOr1~0_combout $end
$var wire 1 `# display_css[5]~reg0_q $end
$var wire 1 a# display3|WideOr0~0_combout $end
$var wire 1 b# display_css[6]~reg0_q $end
$var wire 1 c# contador_ms|num_saida_display [3] $end
$var wire 1 d# contador_ms|num_saida_display [2] $end
$var wire 1 e# contador_ms|num_saida_display [1] $end
$var wire 1 f# contador_ms|num_saida_display [0] $end
$var wire 1 g# contador_cs|num_conta [3] $end
$var wire 1 h# contador_cs|num_conta [2] $end
$var wire 1 i# contador_cs|num_conta [1] $end
$var wire 1 j# contador_cs|num_conta [0] $end
$var wire 1 k# contador_us|num_saida_display [3] $end
$var wire 1 l# contador_us|num_saida_display [2] $end
$var wire 1 m# contador_us|num_saida_display [1] $end
$var wire 1 n# contador_us|num_saida_display [0] $end
$var wire 1 o# contador_cs|num_saida_display [3] $end
$var wire 1 p# contador_cs|num_saida_display [2] $end
$var wire 1 q# contador_cs|num_saida_display [1] $end
$var wire 1 r# contador_cs|num_saida_display [0] $end
$var wire 1 s# contador_ds|num_saida_display [3] $end
$var wire 1 t# contador_ds|num_saida_display [2] $end
$var wire 1 u# contador_ds|num_saida_display [1] $end
$var wire 1 v# contador_ds|num_saida_display [0] $end
$var wire 1 w# contador_ds|num_saida_contador [3] $end
$var wire 1 x# contador_ds|num_saida_contador [2] $end
$var wire 1 y# contador_ds|num_saida_contador [1] $end
$var wire 1 z# contador_ds|num_saida_contador [0] $end
$var wire 1 {# contador_ms|num_saida_contador [3] $end
$var wire 1 |# contador_ms|num_saida_contador [2] $end
$var wire 1 }# contador_ms|num_saida_contador [1] $end
$var wire 1 ~# contador_ms|num_saida_contador [0] $end
$var wire 1 !$ contador_ds|num_contador_anterior_aux [3] $end
$var wire 1 "$ contador_ds|num_contador_anterior_aux [2] $end
$var wire 1 #$ contador_ds|num_contador_anterior_aux [1] $end
$var wire 1 $$ contador_ds|num_contador_anterior_aux [0] $end
$var wire 1 %$ contador_ms|count [31] $end
$var wire 1 &$ contador_ms|count [30] $end
$var wire 1 '$ contador_ms|count [29] $end
$var wire 1 ($ contador_ms|count [28] $end
$var wire 1 )$ contador_ms|count [27] $end
$var wire 1 *$ contador_ms|count [26] $end
$var wire 1 +$ contador_ms|count [25] $end
$var wire 1 ,$ contador_ms|count [24] $end
$var wire 1 -$ contador_ms|count [23] $end
$var wire 1 .$ contador_ms|count [22] $end
$var wire 1 /$ contador_ms|count [21] $end
$var wire 1 0$ contador_ms|count [20] $end
$var wire 1 1$ contador_ms|count [19] $end
$var wire 1 2$ contador_ms|count [18] $end
$var wire 1 3$ contador_ms|count [17] $end
$var wire 1 4$ contador_ms|count [16] $end
$var wire 1 5$ contador_ms|count [15] $end
$var wire 1 6$ contador_ms|count [14] $end
$var wire 1 7$ contador_ms|count [13] $end
$var wire 1 8$ contador_ms|count [12] $end
$var wire 1 9$ contador_ms|count [11] $end
$var wire 1 :$ contador_ms|count [10] $end
$var wire 1 ;$ contador_ms|count [9] $end
$var wire 1 <$ contador_ms|count [8] $end
$var wire 1 =$ contador_ms|count [7] $end
$var wire 1 >$ contador_ms|count [6] $end
$var wire 1 ?$ contador_ms|count [5] $end
$var wire 1 @$ contador_ms|count [4] $end
$var wire 1 A$ contador_ms|count [3] $end
$var wire 1 B$ contador_ms|count [2] $end
$var wire 1 C$ contador_ms|count [1] $end
$var wire 1 D$ contador_ms|count [0] $end
$var wire 1 E$ contador_us|num_saida_contador [3] $end
$var wire 1 F$ contador_us|num_saida_contador [2] $end
$var wire 1 G$ contador_us|num_saida_contador [1] $end
$var wire 1 H$ contador_us|num_saida_contador [0] $end
$var wire 1 I$ contador_us|num_contador_anterior_aux [3] $end
$var wire 1 J$ contador_us|num_contador_anterior_aux [2] $end
$var wire 1 K$ contador_us|num_contador_anterior_aux [1] $end
$var wire 1 L$ contador_us|num_contador_anterior_aux [0] $end
$var wire 1 M$ contador_cs|num_contador_anterior_aux [3] $end
$var wire 1 N$ contador_cs|num_contador_anterior_aux [2] $end
$var wire 1 O$ contador_cs|num_contador_anterior_aux [1] $end
$var wire 1 P$ contador_cs|num_contador_anterior_aux [0] $end
$upscope $end
$upscope $end
$enddefinitions $end
#0
$dumpvars
0!
1"
1#
1$
1%
0,
0+
0*
0)
0(
0'
0&
03
02
01
00
0/
0.
0-
0:
09
08
07
06
05
04
0A
0@
0?
0>
0=
0<
0;
0B
1C
xD
1E
1F
1G
0H
0I
0J
0K
0L
0M
0N
0O
0P
0Q
0R
0S
0T
0U
0V
0W
0X
0Y
0Z
0[
0\
0]
0^
0_
0`
0a
0b
0c
0d
1e
1f
1g
1h
0i
0j
0k
1l
0m
0n
0o
0p
0q
0r
0s
0t
0u
1v
0w
0x
1y
1z
1{
0|
0}
0~
0!!
0"!
0#!
1$!
0%!
1&!
0'!
0(!
0)!
0*!
0+!
0,!
0-!
0.!
1/!
00!
01!
02!
03!
14!
05!
06!
07!
18!
09!
0:!
0;!
0<!
1=!
0>!
0?!
0@!
0A!
0B!
1C!
0D!
0E!
0F!
0G!
0H!
1I!
0J!
0K!
0L!
0M!
0N!
1O!
0P!
0Q!
0R!
0S!
0T!
1U!
0V!
0W!
0X!
0Y!
0Z!
1[!
0\!
0]!
0^!
0_!
0`!
1a!
0b!
0c!
0d!
0e!
0f!
1g!
0h!
0i!
0j!
0k!
0l!
1m!
0n!
0o!
0p!
0q!
0r!
1s!
0t!
0u!
0v!
0w!
0x!
1y!
0z!
0{!
0|!
0}!
0~!
1!"
0""
0#"
0$"
0%"
0&"
1'"
0("
0)"
0*"
0+"
0,"
1-"
0."
0/"
00"
01"
02"
13"
04"
05"
06"
07"
08"
09"
0:"
0;"
0<"
0="
0>"
1?"
1@"
1A"
1B"
1C"
0D"
0E"
0F"
0G"
0H"
0I"
0J"
0K"
0L"
0M"
0N"
0O"
0P"
0Q"
0R"
0S"
0T"
0U"
0V"
0W"
0X"
0Y"
0Z"
0["
0\"
0]"
0^"
1_"
0`"
1a"
0b"
0c"
0d"
0e"
0f"
0g"
0h"
0i"
0j"
0k"
0l"
0m"
0n"
0o"
0p"
0q"
0r"
0s"
0t"
0u"
0v"
0w"
0x"
0y"
0z"
0{"
0|"
0}"
0~"
1!#
0"#
1##
0$#
0%#
0&#
0'#
0(#
0)#
0*#
0+#
0,#
0-#
0.#
0/#
00#
01#
02#
03#
04#
05#
06#
07#
08#
09#
0:#
0;#
0<#
0=#
0>#
0?#
0@#
1A#
0B#
1C#
0D#
0E#
0F#
0G#
0H#
0I#
0J#
0K#
0L#
0M#
0N#
0O#
0P#
0Q#
0R#
0S#
0T#
0U#
0V#
0W#
0X#
0Y#
0Z#
0[#
0\#
0]#
0^#
0_#
0`#
1a#
0b#
0f#
0e#
0d#
0c#
0j#
0i#
0h#
0g#
0n#
0m#
0l#
0k#
0r#
0q#
0p#
0o#
0v#
0u#
0t#
0s#
0z#
0y#
0x#
0w#
0~#
0}#
0|#
0{#
0$$
0#$
0"$
0!$
0D$
0C$
0B$
0A$
0@$
0?$
0>$
0=$
0<$
0;$
0:$
09$
08$
07$
06$
05$
04$
03$
02$
01$
00$
0/$
0.$
0-$
0,$
0+$
0*$
0)$
0($
0'$
0&$
0%$
0H$
0G$
0F$
0E$
0L$
0K$
0J$
0I$
0P$
0O$
0N$
0M$
$end
#5000
1!
1d
1b#
1B#
1"#
1`"
1N
1U
1\
1c
1&
1-
1;
14
#10000
0!
0d
#15000
1!
1d
#20000
0"
0!
0e
0d
0{
0v
1p
0l
1i
1q
1j
#25000
1!
1d
1r
1k
1o
0p
0j
#30000
0!
0d
#35000
1!
1d
0k
1p
1j
#40000
0!
0d
#45000
1!
1d
1k
0p
0j
#50000
0!
0d
#55000
1!
1d
0k
1p
1j
#60000
0!
0d
#65000
1!
1d
1k
0p
0j
#70000
0!
0d
#75000
1!
1d
0k
1p
1j
#80000
1"
0!
1e
0d
1{
1v
0p
0o
1l
0i
0z
1s
1~
0q
0j
#85000
1!
1d
1!!
0r
1.!
0$!
1z
0s
04!
0/!
1'!
0~
0&!
10!
15!
12!
#90000
0!
0d
#95000
1!
1d
16!
13!
1L"
0.!
1O"
1/!
19!
11!
#100000
0!
0d
#105000
1!
1d
1D$
1:!
08!
1;!
09!
1<!
#110000
0!
0d
#115000
1!
1d
1C$
0D$
0=!
0;!
0:!
18!
1>!
1=!
1;!
0<!
19!
0>!
1?!
1<!
0?!
#120000
0!
0d
#125000
1!
1d
1D$
1:!
08!
0=!
0;!
09!
1>!
0<!
1?!
#130000
0!
0d
#135000
1!
1d
1B$
0C$
0D$
1@!
0>!
1=!
1;!
0:!
18!
1A!
0@!
1>!
0;!
0?!
1<!
19!
0A!
1B!
1?!
0<!
0B!
#140000
0!
0d
#145000
1!
1d
1D$
1:!
08!
1;!
09!
1<!
#150000
0!
0d
#155000
1!
1d
1C$
0D$
0=!
0;!
0:!
18!
1@!
0>!
1=!
1;!
0<!
19!
1A!
0@!
1>!
0?!
1<!
0A!
1B!
1?!
0B!
#160000
0!
0d
#165000
1!
1d
1D$
1:!
08!
0=!
0;!
09!
1@!
0>!
0<!
1A!
0?!
1B!
#170000
0!
0d
#175000
1!
1d
1A$
0B$
0C$
0D$
0C!
0A!
0@!
1>!
1=!
1;!
0:!
18!
1D!
1C!
1A!
0>!
0;!
0B!
1?!
1<!
19!
0D!
1E!
1B!
0?!
0<!
0E!
#180000
0!
0d
#185000
1!
1d
1D$
1:!
08!
1;!
09!
1<!
#190000
0!
0d
#195000
1!
1d
1C$
0D$
0=!
0;!
0:!
18!
1>!
1=!
1;!
0<!
19!
0>!
1?!
1<!
0?!
#200000
0!
0d
#205000
1!
1d
1D$
1:!
08!
0=!
0;!
09!
1>!
0<!
1?!
#210000
0!
0d
#215000
1!
1d
1B$
0C$
0D$
1@!
0>!
1=!
1;!
0:!
18!
0C!
0A!
0@!
1>!
0;!
0?!
1<!
19!
1D!
1C!
1A!
0B!
1?!
0<!
0D!
1E!
1B!
0E!
#220000
0!
0d
#225000
1!
1d
1D$
1:!
08!
1;!
09!
1<!
#230000
0!
0d
#235000
1!
1d
1C$
0D$
0=!
0;!
0:!
18!
1@!
0>!
1=!
1;!
0<!
19!
0C!
0A!
0@!
1>!
0?!
1<!
1D!
1C!
1A!
0B!
1?!
0D!
1E!
1B!
0E!
#240000
0!
0d
#245000
1!
1d
1D$
1:!
08!
0=!
0;!
09!
1@!
0>!
0<!
0C!
0A!
0?!
1D!
0B!
1E!
#250000
0!
0d
#255000
1!
1d
1@$
0A$
0B$
0C$
0D$
1F!
0D!
1C!
1A!
0@!
1>!
1=!
1;!
0:!
18!
1G!
0F!
1D!
0A!
0>!
0;!
0E!
1B!
1?!
1<!
19!
0G!
1H!
1E!
0B!
0?!
0<!
0H!
#260000
0!
0d
#265000
1!
1d
1D$
1:!
08!
1;!
09!
1<!
#270000
0!
0d
#275000
1!
1d
1C$
0D$
0=!
0;!
0:!
18!
1>!
1=!
1;!
0<!
19!
0>!
1?!
1<!
0?!
#280000
0!
0d
#285000
1!
1d
1D$
1:!
08!
0=!
0;!
09!
1>!
0<!
1?!
#290000
0!
0d
#295000
1!
1d
1B$
0C$
0D$
1@!
0>!
1=!
1;!
0:!
18!
1A!
0@!
1>!
0;!
0?!
1<!
19!
0A!
1B!
1?!
0<!
0B!
#300000
0$
0!
0h
0d
0{
0l
1i
1w
1j
#305000
1!
1d
1D$
1x
1k
1:!
08!
0v
0j
1;!
09!
1<!
#310000
0!
0d
#315000
1!
1d
1C$
0D$
0k
0=!
0;!
0:!
18!
1v
1j
1@!
0>!
1=!
1;!
0<!
19!
1A!
0@!
1>!
0?!
1<!
0A!
1B!
1?!
0B!
#320000
0!
0d
#325000
1!
1d
1D$
1k
1:!
08!
0v
0j
0=!
0;!
09!
1@!
0>!
0<!
1A!
0?!
1B!
#330000
0!
0d
#335000
1!
1d
1A$
0B$
0C$
0D$
0k
0C!
0A!
0@!
1>!
1=!
1;!
0:!
18!
1v
1j
1F!
0D!
1C!
1A!
0>!
0;!
0B!
1?!
1<!
19!
1G!
0F!
1D!
0E!
1B!
0?!
0<!
0G!
1H!
1E!
0H!
#340000
0!
0d
#345000
1!
1d
1D$
1k
1:!
08!
0v
0j
1;!
09!
1<!
#350000
0!
0d
#355000
1!
1d
1C$
0D$
0k
0=!
0;!
0:!
18!
1v
1j
1>!
1=!
1;!
0<!
19!
0>!
1?!
1<!
0?!
#360000
0!
0d
#365000
1!
1d
1D$
1k
1:!
08!
0v
0j
0=!
0;!
09!
1>!
0<!
1?!
#370000
0!
0d
